v 20110115 2
P 300 1200 0 1200 1 0 1
{
T 250 1225 1 8 1 1 0 6 1
pinnumber=14
T 300 1200 1 8 0 1 0 6 1
pinseq=1
T 400 1200 3 8 1 1 0 1 1
pinlabel=NC/SO
T 300 1200 2 8 0 1 0 5 1
pintype=io
}
P 300 1500 0 1500 1 0 1
{
T 250 1525 1 8 1 1 0 6 1
pinnumber=13
T 300 1500 1 8 0 1 0 6 1
pinseq=2
T 400 1500 3 8 1 1 0 1 1
pinlabel=SDA/SI
T 300 1500 2 8 0 1 0 5 1
pintype=io
}
P 300 1800 0 1800 1 0 1
{
T 250 1825 1 8 1 1 0 6 1
pinnumber=12
T 300 1800 1 8 0 1 0 6 1
pinseq=3
T 400 1800 3 8 1 1 0 1 1
pinlabel=SCL/SCK
T 300 1800 2 8 0 1 0 5 1
pintype=io
}
P 300 2100 0 2100 1 0 1
{
T 250 2125 1 8 1 1 0 6 1
pinnumber=11
T 300 2100 1 8 0 1 0 6 1
pinseq=4
T 400 2100 3 8 1 1 0 1 1
pinlabel=NC/CS
T 300 2100 2 8 0 1 0 5 1
pintype=io
}
P 300 2400 0 2400 1 0 1
{
T 250 2425 1 8 1 1 0 6 1
pinnumber=10
T 300 2400 1 8 0 1 0 6 1
pinseq=5
T 400 2400 3 8 1 1 0 1 1
pinlabel=VSS
T 300 2400 2 8 0 1 0 5 1
pintype=pwr
}
P 300 2700 0 2700 1 0 1
{
T 250 2725 1 8 1 1 0 6 1
pinnumber=9
T 300 2700 1 8 0 1 0 6 1
pinseq=6
T 400 2700 3 8 1 1 0 1 1
pinlabel=VDD
T 300 2700 2 8 0 1 0 5 1
pintype=pwr
}
P 300 3000 0 3000 1 0 1
{
T 250 3025 1 8 1 1 0 6 1
pinnumber=8
T 300 3000 1 8 0 1 0 6 1
pinseq=7
T 400 3000 3 8 1 1 0 1 1
pinlabel=GPB7
T 300 3000 2 8 0 1 0 5 1
pintype=io
}
P 300 3300 0 3300 1 0 1
{
T 250 3325 1 8 1 1 0 6 1
pinnumber=7
T 300 3300 1 8 0 1 0 6 1
pinseq=8
T 400 3300 3 8 1 1 0 1 1
pinlabel=GPB6
T 300 3300 2 8 0 1 0 5 1
pintype=io
}
P 300 3600 0 3600 1 0 1
{
T 250 3625 1 8 1 1 0 6 1
pinnumber=6
T 300 3600 1 8 0 1 0 6 1
pinseq=9
T 400 3600 3 8 1 1 0 1 1
pinlabel=GPB5
T 300 3600 2 8 0 1 0 5 1
pintype=io
}
P 300 3900 0 3900 1 0 1
{
T 250 3925 1 8 1 1 0 6 1
pinnumber=5
T 300 3900 1 8 0 1 0 6 1
pinseq=10
T 400 3900 3 8 1 1 0 1 1
pinlabel=GPB4
T 300 3900 2 8 0 1 0 5 1
pintype=io
}
P 300 4200 0 4200 1 0 1
{
T 250 4225 1 8 1 1 0 6 1
pinnumber=4
T 300 4200 1 8 0 1 0 6 1
pinseq=11
T 400 4200 3 8 1 1 0 1 1
pinlabel=GPB3
T 300 4200 2 8 0 1 0 5 1
pintype=io
}
P 300 4500 0 4500 1 0 1
{
T 250 4525 1 8 1 1 0 6 1
pinnumber=3
T 300 4500 1 8 0 1 0 6 1
pinseq=12
T 400 4500 3 8 1 1 0 1 1
pinlabel=GPB2
T 300 4500 2 8 0 1 0 5 1
pintype=io
}
P 300 4800 0 4800 1 0 1
{
T 250 4825 1 8 1 1 0 6 1
pinnumber=2
T 300 4800 1 8 0 1 0 6 1
pinseq=13
T 400 4800 3 8 1 1 0 1 1
pinlabel=GPB1
T 300 4800 2 8 0 1 0 5 1
pintype=io
}
P 300 5100 0 5100 1 0 1
{
T 250 5125 1 8 1 1 0 6 1
pinnumber=1
T 300 5100 1 8 0 1 0 6 1
pinseq=14
T 400 5100 3 8 1 1 0 1 1
pinlabel=GPB0
T 300 5100 2 8 0 1 0 5 1
pintype=io
}
P 1800 1200 2100 1200 1 0 1
{
T 1850 1225 1 8 1 1 0 0 1
pinnumber=15
T 1800 1200 1 8 0 1 0 6 1
pinseq=15
T 1700 1200 3 8 1 1 0 7 1
pinlabel=A0
T 1800 1200 2 8 0 1 0 5 1
pintype=io
}
P 1800 1500 2100 1500 1 0 1
{
T 1850 1525 1 8 1 1 0 0 1
pinnumber=16
T 1800 1500 1 8 0 1 0 6 1
pinseq=16
T 1700 1500 3 8 1 1 0 7 1
pinlabel=A1
T 1800 1500 2 8 0 1 0 5 1
pintype=io
}
P 1800 1800 2100 1800 1 0 1
{
T 1850 1825 1 8 1 1 0 0 1
pinnumber=17
T 1800 1800 1 8 0 1 0 6 1
pinseq=17
T 1700 1800 3 8 1 1 0 7 1
pinlabel=A2
T 1800 1800 2 8 0 1 0 5 1
pintype=io
}
P 1800 2100 2100 2100 1 0 1
{
T 1850 2125 1 8 1 1 0 0 1
pinnumber=18
T 1800 2100 1 8 0 1 0 6 1
pinseq=18
T 1700 2100 3 8 1 1 0 7 1
pinlabel=RESET
T 1800 2100 2 8 0 1 0 5 1
pintype=io
}
P 1800 2400 2100 2400 1 0 1
{
T 1850 2425 1 8 1 1 0 0 1
pinnumber=19
T 1800 2400 1 8 0 1 0 6 1
pinseq=19
T 1700 2400 3 8 1 1 0 7 1
pinlabel=INTB
T 1800 2400 2 8 0 1 0 5 1
pintype=io
}
P 1800 2700 2100 2700 1 0 1
{
T 1850 2725 1 8 1 1 0 0 1
pinnumber=20
T 1800 2700 1 8 0 1 0 6 1
pinseq=20
T 1700 2700 3 8 1 1 0 7 1
pinlabel=INTA
T 1800 2700 2 8 0 1 0 5 1
pintype=io
}
P 1800 3000 2100 3000 1 0 1
{
T 1850 3025 1 8 1 1 0 0 1
pinnumber=21
T 1800 3000 1 8 0 1 0 6 1
pinseq=21
T 1700 3000 3 8 1 1 0 7 1
pinlabel=GPA0
T 1800 3000 2 8 0 1 0 5 1
pintype=io
}
P 1800 3300 2100 3300 1 0 1
{
T 1850 3325 1 8 1 1 0 0 1
pinnumber=22
T 1800 3300 1 8 0 1 0 6 1
pinseq=22
T 1700 3300 3 8 1 1 0 7 1
pinlabel=GPA1
T 1800 3300 2 8 0 1 0 5 1
pintype=io
}
P 1800 3600 2100 3600 1 0 1
{
T 1850 3625 1 8 1 1 0 0 1
pinnumber=23
T 1800 3600 1 8 0 1 0 6 1
pinseq=23
T 1700 3600 3 8 1 1 0 7 1
pinlabel=GPA2
T 1800 3600 2 8 0 1 0 5 1
pintype=io
}
P 1800 3900 2100 3900 1 0 1
{
T 1850 3925 1 8 1 1 0 0 1
pinnumber=24
T 1800 3900 1 8 0 1 0 6 1
pinseq=24
T 1700 3900 3 8 1 1 0 7 1
pinlabel=GPA3
T 1800 3900 2 8 0 1 0 5 1
pintype=io
}
P 1800 4200 2100 4200 1 0 1
{
T 1850 4225 1 8 1 1 0 0 1
pinnumber=25
T 1800 4200 1 8 0 1 0 6 1
pinseq=25
T 1700 4200 3 8 1 1 0 7 1
pinlabel=GPA4
T 1800 4200 2 8 0 1 0 5 1
pintype=io
}
P 1800 4500 2100 4500 1 0 1
{
T 1850 4525 1 8 1 1 0 0 1
pinnumber=26
T 1800 4500 1 8 0 1 0 6 1
pinseq=26
T 1700 4500 3 8 1 1 0 7 1
pinlabel=GPA5
T 1800 4500 2 8 0 1 0 5 1
pintype=io
}
P 1800 4800 2100 4800 1 0 1
{
T 1850 4825 1 8 1 1 0 0 1
pinnumber=27
T 1800 4800 1 8 0 1 0 6 1
pinseq=27
T 1700 4800 3 8 1 1 0 7 1
pinlabel=GPA6
T 1800 4800 2 8 0 1 0 5 1
pintype=io
}
P 1800 5100 2100 5100 1 0 1
{
T 1850 5125 1 8 1 1 0 0 1
pinnumber=28
T 1800 5100 1 8 0 1 0 6 1
pinseq=28
T 1700 5100 3 8 1 1 0 7 1
pinlabel=GPA7
T 1800 5100 2 8 0 1 0 5 1
pintype=io
}
B 300 900 1500 4500 3 10 0 0 -1 -1 0 -1 -1 -1 -1 -1
T 1050 3050 2 8 1 1 90 4 1
MCP23017
T 0 0 0 1 0 0 0 0 1
device=MCP23017
T 1650 5550 2 8 1 1 0 0 1
refdes=U?
T 0 0 0 1 0 0 0 0 1
footprint=SOIC 28 300
T 0 0 0 1 0 0 0 0 1
description=
T 0 0 0 1 0 0 0 0 1
numslots=0
